<svg width="13" height="25" viewBox="0 0 13 25" fill="none" xmlns="http://www.w3.org/2000/svg">
<path d="M8.29241 24.2941V13.2305H12.0729L12.6348 8.89867H8.29241V6.13951C8.29241 4.88951 8.64516 4.03369 10.4622 4.03369H12.7647V0.171664C11.6444 0.0531318 10.5184 -0.00410097 9.39169 0.000228355C6.05011 0.000228355 3.75585 2.01426 3.75585 5.71159V8.89057H0V13.2224H3.76406V24.2941H8.29241Z" fill="#0A93C9"/>
</svg>
